{
  "orderWeight": 499,
  "randomWeightMultiplier": 1.0,
  "randomAppearance": 1.0,
  "encounterId": "1a588196-06e3-470c-8828-879698af5662",
  "name": "Exposition Ignored",
  "trigger": "Load",
  "defaultEndLogId": "7fc59fd7-3c8d-4e7b-925b-b5aadde25300",
  "filtering": {
    "showValues": true,
    "booleanKeyValues": [
      {
        "filterId": "b152fd24-7c5e-4515-8bbf-190a90d6a0aa",
        "group": "All",
        "Input0": {
          "AddressId": "069d9690-5a3a-4a32-9b9e-abbc4c443672",
          "Source": "KeyValue",
          "ForeignTarget": "Preferences",
          "ForeignKey": "ignore_tutorial"
        },
        "Input1": {
          "AddressId": "4fc174a7-3155-4ce8-9de8-7dc6473feaec",
          "Source": "LocalValue",
          "LocalValue": true
        }
      }
    ],
    "integerKeyValues": [],
    "stringKeyValues": [],
    "floatKeyValues": [],
    "enumerationKeyValues": [],
    "encounterInteractions": []
  },
  "logs": {
    "keyValueLogs": [],
    "switchLogs": [],
    "buttonLogs": [],
    "encyclopediaLogs": [],
    "eventLogs": [
      {
        "entries": [
          {
            "entry": {
              "encounterEvent": "ToolbarSelection",
              "isHalting": true,
              "keyValues": {
                "booleans": {},
                "integers": {
                  "selection": 10,
                  "lock_state": 0
                },
                "strings": {},
                "floats": {}
              },
              "filtering": {
                "booleanKeyValues": [],
                "integerKeyValues": [],
                "stringKeyValues": [],
                "floatKeyValues": [],
                "enumerationKeyValues": [],
                "encounterInteractions": []
              },
              "entryId": "5cb46ed6-0de5-4d9b-b422-b95fda88e6e2"
            },
            "index": 1
          }
        ],
        "beginning": true,
        "ending": true,
        "logId": "ccce1701-c18f-474e-a42d-8ca92d5dc4a5"
      },
      {
        "entries": [],
        "index": 1,
        "ending": true,
        "logId": "7fc59fd7-3c8d-4e7b-925b-b5aadde25300",
        "name": "< End Encounter >"
      }
    ],
    "dialogLogs": [],
    "bustLogs": [],
    "conversationLogs": []
  },
  "version": 11,
  "meta": "Exposition Ignored",
  "metaKeyValues": {
    "EncounterId": "1a588196-06e3-470c-8828-879698af5662"
  },
  "created": "2019-03-26T11:29:29.063017-07:00",
  "modified": "2019-03-26T11:29:29.063017-07:00",
  "SaveType": "EncounterInfo",
  "SiblingBehaviour": "None"
}